{
  "fileFormat": {
    "charsetName": "UTF-8",
    "fieldsDelimitedBy": ",",
    "fieldsEnclosedBy": "\"",
    "linesTerminatedBy": "\n",
    "numberOfLinesToIgnore": 0
  },
  "objects": [
    {
      "name": "SitLoad_csv",
      "fullyQualifiedName": "SitLoad_csv",
      "connector": "CSV",
      "label": "SitLoad.csv",
      "description": "SitLoad_csv",
      "rowLevelSecurityFilter": null,
      "fields": [
        {
          "name": "CTV",
          "fullyQualifiedName": "CTV",
          "label": "CTV",
          "description": null,
          "type": "Text",
          "precision": 255,
          "scale": 0,
          "decimalSeparator": ".",
          "defaultValue": null,
          "format": null,
          "isSystemField": false,
          "isUniqueId": false,
          "isMultiValue": false,
          "multiValueSeparator": null,
          "fiscalMonthOffset": 0,
          "firstDayOfWeek": -1,
          "isYearEndFiscalYear": true,
          "canTruncateValue": true,
          "isSkipped": false
        },
        {
          "name": "POSID",
          "fullyQualifiedName": "POSID",
          "label": "POSID",
          "description": null,
          "type": "Text",
          "precision": 255,
          "scale": 0,
          "decimalSeparator": ".",
          "defaultValue": null,
          "format": null,
          "isSystemField": false,
          "isUniqueId": false,
          "isMultiValue": false,
          "multiValueSeparator": null,
          "fiscalMonthOffset": 0,
          "firstDayOfWeek": -1,
          "isYearEndFiscalYear": true,
          "canTruncateValue": true,
          "isSkipped": false
        },
        {
          "name": "Sellout",
          "fullyQualifiedName": "Sellout",
          "label": "Sellout",
          "description": null,
          "type": "Numeric",
          "precision": 18,
          "scale": 0,
          "decimalSeparator": ".",
          "defaultValue": "0",
          "format": "0",
          "isSystemField": false,
          "isUniqueId": false,
          "isMultiValue": false,
          "multiValueSeparator": null,
          "fiscalMonthOffset": 0,
          "firstDayOfWeek": -1,
          "isYearEndFiscalYear": true,
          "canTruncateValue": true,
          "isSkipped": false
        },
        {
          "name": "WeekID",
          "fullyQualifiedName": "WeekID",
          "label": "WeekID",
          "description": null,
          "type": "Text",
          "precision": 255,
          "scale": 0,
          "decimalSeparator": ".",
          "defaultValue": null,
          "format": null,
          "isSystemField": false,
          "isUniqueId": false,
          "isMultiValue": false,
          "multiValueSeparator": null,
          "fiscalMonthOffset": 0,
          "firstDayOfWeek": -1,
          "isYearEndFiscalYear": true,
          "canTruncateValue": true,
          "isSkipped": false
        },
        {
          "name": "Date",
          "fullyQualifiedName": "Date",
          "label": "Date",
          "description": null,
          "type": "Date",
          "precision": 0,
          "scale": 0,
          "decimalSeparator": ".",
          "defaultValue": null,
          "format": "yyyy-MM-dd",
          "isSystemField": false,
          "isUniqueId": false,
          "isMultiValue": false,
          "multiValueSeparator": null,
          "fiscalMonthOffset": 0,
          "firstDayOfWeek": -1,
          "isYearEndFiscalYear": true,
          "canTruncateValue": true,
          "isSkipped": false
        }
      ]
    }
  ]
}